[
  {
    "name": "gatekeeper",
    "href": "http://wotgate.om.fi.upm.es/things/gatekeeper/"
  },
  {
    "name": "dome",
    "href": "http://wotgate.om.fi.upm.es/things/dome/"
  },
  {
    "name": "mount",
    "href": "http://wotgate.om.fi.upm.es/things/mount/"
  },
  {
    "name": "camera",
    "href": "http://wotgate.om.fi.upm.es/things/camera/"
  },
  {
    "name": "weatherstation",
    "href": "http://wotgate.om.fi.upm.es/things/weatherstation/"
  }
]
